{
  "app_key": "application.generated.unity.newunityproject.exe",
  "bindings": {
    "/actions/buggy": {
      "chords": [],
      "poses": [],
      "haptics": [],
      "sources": [],
      "skeleton": []
    },
    "/actions/default": {
      "chords": [
        {
          "output": "/actions/default/in/unlockscreen",
          "inputs": [
            [
              "/user/hand/left/input/trigger",
              "click"
            ],
            [
              "/user/hand/left/input/b",
              "click"
            ]
          ]
        }
      ],
      "poses": [
        {
          "output": "/actions/default/in/pose",
          "path": "/user/hand/left/pose/raw"
        },
        {
          "output": "/actions/default/in/pose",
          "path": "/user/hand/right/pose/raw"
        }
      ],
      "haptics": [
        {
          "output": "/actions/default/out/haptic",
          "path": "/user/hand/left/output/haptic"
        },
        {
          "output": "/actions/default/out/haptic",
          "path": "/user/hand/right/output/haptic"
        }
      ],
      "sources": [
        {
          "path": "/user/hand/left/input/grip",
          "mode": "grab",
          "parameters": {
            "force_hold_threshold": "0.4",
            "force_release_threshold": "0.1",
            "value_hold_threshold": "0.65",
            "value_release_threshold": "0.05"
          },
          "inputs": {
            "grab": {
              "output": "/actions/default/in/adjustscreen"
            }
          }
        },
        {
          "path": "/user/hand/right/input/grip",
          "mode": "grab",
          "parameters": {
            "force_hold_threshold": "0.4",
            "force_release_threshold": "0.1",
            "value_hold_threshold": "0.65",
            "value_release_threshold": "0.05"
          },
          "inputs": {
            "grab": {
              "output": "/actions/default/in/adjustscreen"
            }
          }
        },
        {
          "path": "/user/hand/left/input/grip",
          "mode": "grab",
          "parameters": {
            "force_hold_threshold": "0.8",
            "force_release_threshold": "0.2",
            "value_hold_threshold": "1.7",
            "value_release_threshold": "0.5"
          },
          "inputs": {
            "grab": {
              "output": "/actions/default/in/lockscreen"
            }
          }
        },
        {
          "path": "/user/hand/right/input/grip",
          "mode": "grab",
          "parameters": {
            "force_hold_threshold": "0.8",
            "force_release_threshold": "0.2",
            "value_hold_threshold": "1.7",
            "value_release_threshold": "0.5"
          },
          "inputs": {
            "grab": {
              "output": "/actions/default/in/lockscreen"
            }
          }
        },
        {
          "path": "/user/hand/left/input/b",
          "mode": "button",
          "parameters": {},
          "inputs": {
            "click": {
              "output": "/actions/default/in/unlockscreen"
            }
          }
        },
        {
          "path": "/user/hand/right/input/b",
          "mode": "button",
          "parameters": {},
          "inputs": {
            "click": {
              "output": "/actions/default/in/unlockscreen"
            }
          }
        }
      ],
      "skeleton": [
        {
          "output": "/actions/default/in/skeletonlefthand",
          "path": "/user/hand/left/input/skeleton/left"
        },
        {
          "output": "/actions/default/in/skeletonrighthand",
          "path": "/user/hand/right/input/skeleton/right"
        }
      ]
    },
    "/actions/platformer": {
      "chords": [],
      "poses": [],
      "haptics": [],
      "sources": [],
      "skeleton": []
    }
  },
  "controller_type": "knuckles",
  "description": "",
  "name": "My New Unity Project [Testing] configuration for Index Controller"
}